An S3 data object and framework for common quantitative proteomic analyses • tidyproteomics
…
protein, peptide, modification
In the case of peptide-level data, this is a multiple of protein (accession number), peptide (amino acid sequence) and modification (post-translational modification).

abundance_raw
The imported quantitative measure for each protein or peptide. The tidyproteomics data object stores abundance values for the raw data and each normalization. This allows for the direct comparison of normalization methods against the raw data, and for one set of abundance values to be used for subsequent analyses.

Example

library(tidyproteomics)

hela_proteins$quantitation

# A tibble: 42,330 × 5
   sample_id sample    replicate protein abundance_raw
   <chr>     <chr>     <chr>     <chr>           <dbl>
 1 e9b20ea7  control   1         Q15149    1011259992.
 2 ef79cc4c  control   2         Q15149    1093277593.
 3 eebba67b  control   3         Q15149     980809516.
 4 ebf4b0fe  knockdown 1         Q15149    1410445367.
 5 ea36dac9  knockdown 2         Q15149    1072305561.
 6 ecfd1822  knockdown 3         Q15149    1486561518.
# … with 42,324 more rows
…
term
The name of the collection of annotations, such as gene_name or description.

annotation
The descriptive annotation.

Example

library(tidyproteomics)

print(hela_proteins$annotations)

# A tibble: 63,495 × 3
   protein term               annotation                                                                                                          
   <chr>   <chr>              <chr>                                                                                                               
 1 Q15149  description        Plectin OS=Homo sapiens OX=9606 GN=PLEC PE=1 SV=3                                                                   
 2 Q15149  gene_id_entrez     5339                                                                                                                
 3 Q15149  gene_id_ensemble   ENSG00000178209                                                                                                     
 4 Q15149  gene_name          PLEC                                                                                                                
 5 Q15149  biological_process cell differentiation;cell growth;cellular homeostasis;coagulation;defense response;metabolic process
# … with 63,490 more rows
…
