Automating • tidyproteomics
…
Each plot and table are save in the local directory and labeled
accordingly.

"./table_proteins_enrichment_knockdown-control.csv" %>% read.csv()

The Enrichment Table

#> # A tibble: 1,561 × 6
#>    term               annotation            p_value adj_p_value enrichment  size
#>    <chr>              <chr>                   <dbl>       <dbl>      <dbl> <int>
#>  1 biological_process conjugation           2.28e-6   0.0000296      1.12   1227
#>  2 biological_process cell proliferation    5.98e-4   0.00717        0.812   301
#>  3 biological_process cell organization an… 5.80e-3   0.0638         1.06   1373
#>  4 biological_process development           9.02e-3   0.0902         1.10    879
#>  5 biological_process cellular component m… 9.58e-3   0.0902         0.933  1015
#>  6 biological_process defense response      2.19e-2   0.175          1.08    848
#>  7 biological_process metabolic process     7.89e-2   0.552          1.03   3179
#>  8 biological_process coagulation           1.39e-1   0.833          1.08    961
#>  9 biological_process cell differentiation  1.49e-1   0.833          0.953   551
#> 10 biological_process cell growth           1.63e-1   0.833          1.06   1782
#> # ℹ 1,551 more rows
…
