Expression • tidyproteomics
…
rdata <- hela_proteins %>% 
  normalize(.method = 'loess') %>%
  impute(impute_function = base::min) %>%
  expression(knockdown/control)

Exporting Results

The results of this analysis are stored in the tidyproteomics
data-object and can easily be exported to save as a flat data table or
used in an external down stream analysis.

rdata %>% export_analysis(knockdown/control, .analysis = 'expression')
#> # A tibble: 5,279 × 18
#>    protein imputed     n avera…¹ propo…² foldc…³ log2_…⁴ p_value adj_p…⁵ descr…⁶
#>    <chr>     <dbl> <int>   <dbl>   <dbl>   <dbl>   <dbl>   <dbl>   <dbl> <chr>  
#>  1 O43295    0.333     6  4.29e6 1.75e-5    92.5    6.53 0.129         1 SLIT-R…
#>  2 Q15011    0         6  2.82e6 1.15e-5    52.4    5.71 0.00248       1 Homocy…
#>  3 P00414    0.333     6  1.29e6 5.27e-6    35.1    5.14 0.00423       1 Cytoch…
#>  4 Q9BRJ7    0.167     6  1.07e6 4.38e-6    27.9    4.80 0.0179        1 Tudor-…
#>  5 Q9UI14    0.167     6  7.79e5 3.18e-6    23.0    4.52 0.192         1 Prenyl…
#>  6 Q53FT3    0         6  2.04e6 8.30e-6    23.0    4.52 0.195         1 Protei…
#>  7 Q9BY50    0         6  1.21e6 4.94e-6    22.2    4.47 0.00227       1 Signal…
#>  8 A0A2R8…   0         6  9.57e5 3.90e-6    20.5    4.36 0.199         1 AP-3 c…
#>  9 P49427    0         6  1.37e6 5.57e-6    18.7    4.22 0.182         1 Ubiqui…
#> 10 Q13751    0.333     6  6.81e5 2.78e-6    17.4    4.12 0.00194       1 Lamini…
#> # … with 5,269 more rows, 8 more variables: gene_id_entrez <chr>,
#> #   gene_id_ensemble <chr>, gene_name <chr>, biological_process <chr>,
#> #   cellular_component <chr>, molecular_function <chr>, wiki_pathway <chr>,
#> #   reactome_pathway <chr>, and abbreviated variable names ¹​average_expression,
#> #   ²​proportional_expression, ³​foldchange, ⁴​log2_foldchange, ⁵​adj_p_value,
#> #   ⁶​description
…
